Group 1 - Racetrack Times
…
## We are interested in the car type

```r
select(Racetrack_data, car)
```

```
## # A tibble: 358 x 1
##    car           
##    <chr>         
##  1 Gumbert       
##  2 Caterham      
##  3 Porsche       
##  4 Caterham      
##  5 Manthye Motors
##  6 Nissan        
##  7 Caterham      
##  8 Ariel         
##  9 Lamborghini   
## 10 Ariel         
## # … with 348 more rows
```
---

## Total amount of cars

```r
Racetrack_data %>%
  count(car, sort = TRUE)
```

```
## # A tibble: 69 x 2
##    car             n
##    <chr>       <int>
##  1 Porsche        36
##  2 BMW            30
##  3 Honda          26
##  4 Nissan         25
##  5 Ferrari        17
##  6 Mercedes       17
##  7 Mitsubishi     17
##  8 Audi           14
##  9 Mazda          14
## 10 Lamborghini    12
## # … with 59 more rows
```
…
## Times on the tracks

```r
Racetrack_data %>%
  group_by(car) %>%
  summarise(
    min_time = min(Tsukuba_Lap_Time),
    mean_time = mean(Tsukuba_Lap_Time),
    median_time = median(Tsukuba_Lap_Time),
    max_time = max(Tsukuba_Lap_Time)
    )
```

```
## # A tibble: 69 x 5
##    car          min_time mean_time median_time max_time
##    <chr>           <dbl>     <dbl>       <dbl>    <dbl>
##  1 AC Schnitzer     64.9      65.0        65.0     65.1
##  2 Alfa             72.0      74.3        73.7     77.9
##  3 Alpina           65.7      66.7        66.5     68.2
##  4 Ariel            61.7      61.8        61.8     61.9
##  5 Ascari           63.0      63.0        63.0     63.0
##  6 Aston Martin     64.9      65.9        65.9     66.7
##  7 Audi             63.5      68.0        68.0     71.8
##  8 Bentley          68.1      68.9        68.9     69.8
##  9 BMW              64.2      68.6        68.2     76.8
## 10 Bovingdon        65.0      65.0        65.0     65.0
## # … with 59 more rows
```
…
